<svg class="layer" width="100%" viewBox="0 0 1024 1024" version="1.1" xmlns="http://www.w3.org/2000/svg" xmlns:xlink="http://www.w3.org/1999/xlink">
    <style type="text/css" >
        <![CDATA[
            svg {
                overflow: visible !important;
            }
            a rect {
                stroke: blue;
                stroke-width: 3;
                stroke-opacity: 1;
                fill-opacity: 0.1;
            }
            rect {
                fill-opacity: 0;
            }
            rect:hover {
                fill-opacity: 0.3;
                stroke: red;
                stroke-width: 3;
                stroke-opacity: 1;
            }
            g:hover rect {
                fill-opacity: 0.3;
                stroke: red;
                stroke-width: 3;
                stroke-opacity: 1;
            }
        ]]>
    </style>
    <image width="1024" height="1024" id="layer" xlink:href="/explain/entities.png"></image>
    <!-- add explanation texts here -->
    <rect x="0" y="0" width="64" height="64" class="tooltip" title="<strong>Empty (0)</strong><br>Empty tile, used as an eraser in the map editor."></rect>
    <g>
        <rect x="64" y="0" width="64" height="64" class="tooltip" title="<strong>Hookable (1)</strong><br>Block with collision, can be hooked."></rect>
        <rect x="192" y="0" width="64" height="64" class="tooltip" title="<strong>Unhookable (3)</strong><br>Block with collision, can not be hooked."></rect>
    </g>
    <rect x="128" y="0" width="64" height="64" class="tooltip" title="<strong>Kill (2)</strong><br>Kills on touch."></rect>
    <rect x="256" y="0" width="64" height="64" class="tooltip" title="<strong>Dragger+Turret Blocker (4)</strong><br>Blocks sight of Draggers, Spinning Lasers and Turrets."></rect>
    <g>
        <rect x="128" y="256" width="64" height="64" class="tooltip" title="<strong>New Hookthrough (66)</strong><br>Causes your hook to pass through the block underneath. Mid-air, this tile causes your hook to reset."></rect>
        <rect x="192" y="256" width="64" height="64" class="tooltip" title="<strong>Directional Hookthrough (67)</strong><br>Your hook passes through the block in one direction."></rect>
        <rect x="320" y="0" width="64" height="64" class="tooltip" title="<strong>Hookthrough Block (5)</strong><br>Editor Tile, places Unhookable and New Hookthrough to simulate placing Hookthrough Blocks."></rect>
        <rect x="384" y="0" width="64" height="64" class="tooltip" title="<strong>Old Hookthrough (6)</strong><br>Lets you hook through the surface of adjacent blocks."></rect>
    </g>
    <g>
        <rect x="576" y="0" width="64" height="64" class="tooltip" title="<strong>Freeze (9)</strong><br>Freezes (stuns) for a couple of seconds (for 3 seconds by default)."></rect>
        <rect x="704" y="0" width="64" height="64" class="tooltip" title="<strong>Unfreeze (11)</strong><br>Unfreezes instantly."></rect>
    </g>
    <g>
        <rect x="768" y="0" width="64" height="64" class="tooltip" title="<strong>Deep (12)</strong><br>Freezes (stuns) permanently, cancelled only by Undeep."></rect>
        <rect x="832" y="0" width="64" height="64" class="tooltip" title="<strong>Undeep (13)</strong><br>Cancels Deep freeze effect."></rect>
    </g>
    <rect x="0" y="64" width="64" height="64" class="tooltip" title="<strong>Walljump (16)</strong><br>Allows to climb up adjacent surfaces of blocks."></rect>
    <g>
        <rect x="64" y="64" width="64" height="64" class="tooltip" title="<strong>Endless Hook on (17)</strong><br>Enables endless hook (on other tees)."></rect>
        <rect x="128" y="64" width="64" height="64" class="tooltip" title="<strong>Endless Hook off (18)</strong><br>Disables endless hook."></rect>
    </g>
    <g>
        <rect x="192" y="64" width="64" height="64" class="tooltip" title="<strong>Hit Others On (19)</strong><br>Enables hitting others with weapons."></rect>
        <rect x="256" y="64" width="64" height="64" class="tooltip" title="<strong>Hit Others Off (20)</strong><br>Disables hitting others with weapons."></rect>
    </g>
    <g>
        <rect x="320" y="64" width="64" height="64" class="tooltip" title="<strong>Solo (21)</strong><br>Enables solo part."></rect>
        <rect x="384" y="64" width="64" height="64" class="tooltip" title="<strong>Unsolo (22)</strong><br>Disables solo part."></rect>
    </g>
    <rect x="0" y="128" width="64" height="64" class="tooltip" title="<strong>Doublejump Refresher (32)</strong><br>Refreshes all doublejumps."></rect>
    <g>
        <rect x="64" y="128" width="64" height="64" class="tooltip" title="<strong>Start (33)</strong><br>Marks begin of race, starts the timer."></rect>
        <rect x="128" y="128" width="64" height="64" class="tooltip" title="<strong>Finish (34)</strong><br>End of race."></rect>
    </g>
    <g>
        <rect x="192" y="128" width="64" height="64" class="tooltip" title="<strong>Time Checkpoint 1 (35)</strong><br>Compares your current race time with your record time at this checkpoint, shows how you compare to it."></rect>
        <rect x="256" y="128" width="64" height="64" class="tooltip" title="<strong>Time Checkpoint 2 (36)</strong><br>Compares your current race time with your record time at this checkpoint, shows how you compare to it."></rect>
        <rect x="320" y="128" width="64" height="64" class="tooltip" title="<strong>Time Checkpoint 3 (37)</strong><br>Compares your current race time with your record time at this checkpoint, shows how you compare to it."></rect>
        <rect x="384" y="128" width="64" height="64" class="tooltip" title="<strong>Time Checkpoint 4 (38)</strong><br>Compares your current race time with your record time at this checkpoint, shows how you compare to it."></rect>
        <rect x="448" y="128" width="64" height="64" class="tooltip" title="<strong>Time Checkpoint 5 (39)</strong><br>Compares your current race time with your record time at this checkpoint, shows how you compare to it."></rect>
        <rect x="512" y="128" width="64" height="64" class="tooltip" title="<strong>Time Checkpoint 6 (40)</strong><br>Compares your current race time with your record time at this checkpoint, shows how you compare to it."></rect>
        <rect x="576" y="128" width="64" height="64" class="tooltip" title="<strong>Time Checkpoint 7 (41)</strong><br>Compares your current race time with your record time at this checkpoint, shows how you compare to it."></rect>
        <rect x="640" y="128" width="64" height="64" class="tooltip" title="<strong>Time Checkpoint 8 (42)</strong><br>Compares your current race time with your record time at this checkpoint, shows how you compare to it."></rect>
        <rect x="704" y="128" width="64" height="64" class="tooltip" title="<strong>Time Checkpoint 9 (43)</strong><br>Compares your current race time with your record time at this checkpoint, shows how you compare to it."></rect>
        <rect x="768" y="128" width="64" height="64" class="tooltip" title="<strong>Time Checkpoint 10 (44)</strong><br>Compares your current race time with your record time at this checkpoint, shows how you compare to it."></rect>
        <rect x="832" y="128" width="64" height="64" class="tooltip" title="<strong>Time Checkpoint 11 (45)</strong><br>Compares your current race time with your record time at this checkpoint, shows how you compare to it."></rect>
        <rect x="896" y="128" width="64" height="64" class="tooltip" title="<strong>Time Checkpoint 12 (46)</strong><br>Compares your current race time with your record time at this checkpoint, shows how you compare to it."></rect>
        <rect x="960" y="128" width="64" height="64" class="tooltip" title="<strong>Time Checkpoint 13 (47)</strong><br>Compares your current race time with your record time at this checkpoint, shows how you compare to it."></rect>
        <rect x="0" y="192" width="64" height="64" class="tooltip" title="<strong>Time Checkpoint 14 (48)</strong><br>Compares your current race time with your record time at this checkpoint, shows how you compare to it."></rect>
        <rect x="64" y="192" width="64" height="64" class="tooltip" title="<strong>Time Checkpoint 15 (49)</strong><br>Compares your current race time with your record time at this checkpoint, shows how you compare to it."></rect>
        <rect x="128" y="192" width="64" height="64" class="tooltip" title="<strong>Time Checkpoint 16 (50)</strong><br>Compares your current race time with your record time at this checkpoint, shows how you compare to it."></rect>
        <rect x="192" y="192" width="64" height="64" class="tooltip" title="<strong>Time Checkpoint 17 (51)</strong><br>Compares your current race time with your record time at this checkpoint, shows how you compare to it."></rect>
        <rect x="256" y="192" width="64" height="64" class="tooltip" title="<strong>Time Checkpoint 18 (52)</strong><br>Compares your current race time with your record time at this checkpoint, shows how you compare to it."></rect>
        <rect x="320" y="192" width="64" height="64" class="tooltip" title="<strong>Time Checkpoint 19 (53)</strong><br>Compares your current race time with your record time at this checkpoint, shows how you compare to it."></rect>
        <rect x="384" y="192" width="64" height="64" class="tooltip" title="<strong>Time Checkpoint 20 (54)</strong><br>Compares your current race time with your record time at this checkpoint, shows how you compare to it."></rect>
        <rect x="448" y="192" width="64" height="64" class="tooltip" title="<strong>Time Checkpoint 21 (55)</strong><br>Compares your current race time with your record time at this checkpoint, shows how you compare to it."></rect>
        <rect x="512" y="192" width="64" height="64" class="tooltip" title="<strong>Time Checkpoint 22 (56)</strong><br>Compares your current race time with your record time at this checkpoint, shows how you compare to it."></rect>
        <rect x="576" y="192" width="64" height="64" class="tooltip" title="<strong>Time Checkpoint 23 (57)</strong><br>Compares your current race time with your record time at this checkpoint, shows how you compare to it."></rect>
        <rect x="640" y="192" width="64" height="64" class="tooltip" title="<strong>Time Checkpoint 24 (58)</strong><br>Compares your current race time with your record time at this checkpoint, shows how you compare to it."></rect>
        <rect x="704" y="192" width="64" height="64" class="tooltip" title="<strong>Time Checkpoint 25 (59)</strong><br>Compares your current race time with your record time at this checkpoint, shows how you compare to it."></rect>
    </g>
    <g>
        <rect x="768" y="192" width="64" height="64" class="tooltip" title="<strong>Directional Stopper (60)</strong><br>Blocks movement in one direction."></rect>
        <rect x="832" y="192" width="64" height="64" class="tooltip" title="<strong>Bi-Directional Stopper (61)</strong><br>Blocks movement in two directions."></rect>
        <rect x="896" y="192" width="64" height="64" class="tooltip" title="<strong>Stopper (62)</strong><br>Blocks movement in all directions direction."></rect>
    </g>
    <g>
        <rect x="0" y="256" width="64" height="64" class="tooltip" title="<strong>Slow Speeder (64)</strong><br>Causes weapons, hearts, shields and rotating lasers to move around."></rect>
        <rect x="64" y="256" width="64" height="64" class="tooltip" title="<strong>Fast Speeder (65)</strong><br>Causes weapons, hearts, shields and rotating lasers to move around."></rect>
    </g>
    <g>
        <rect x="448" y="256" width="64" height="64" class="tooltip" title="<strong>Map: Old Laser (71)</strong><br>Affects entire map, laser and shotgun beams can't hit the tee they were shot from. Shotgun will always propel the hit tee in the direction of the shooter."></rect>
        <rect x="512" y="256" width="64" height="64" class="tooltip" title="<strong>Map: Tee Collision Off (72)</strong><br>Affects entire map, tees don't collide with each other."></rect>
        <rect x="576" y="256" width="64" height="64" class="tooltip" title="<strong>Map: Endless Hook (73)</strong><br>Affects entire map, tees have endless hook (can hook other tees indefinitely)."></rect>
        <rect x="640" y="256" width="64" height="64" class="tooltip" title="<strong>Map: Hit Others Off (74)</strong><br>Affects entire map, tees can't hit other tees with weapons."></rect>
        <rect x="704" y="256" width="64" height="64" class="tooltip" title="<strong>Map: Hookthrough Tees (75)</strong><br>Affects entire map, hooks will pass through tees."></rect>
    </g>
    <rect x="768" y="256" width="64" height="64" class="tooltip" title="<strong>Unlock Team (76)</strong><br>Forces team to unlock, used in dummy maps to kill off dummy."></rect>
    <g>
        <rect x="512" y="320" width="64" height="64" class="tooltip" title="<strong>Tee Collision Off (88)</strong><br>Disables collision with other tees."></rect>
        <rect x="512" y="384" width="64" height="64" class="tooltip" title="<strong>Tee Collision On (104)</strong><br>Enables collision with other tees."></rect>
    </g>
    <g>
        <rect x="576" y="320" width="64" height="64" class="tooltip" title="<strong>Infinite Doublejumps off (89)</strong><br>Disables unlimited doublejumps."></rect>
        <rect x="576" y="384" width="64" height="64" class="tooltip" title="<strong>Infinite Doublejumps On (105)</strong><br>Enables unlimited doublejumps."></rect>
    </g>
    <g>
        <rect x="640" y="320" width="64" height="64" class="tooltip" title="<strong>Jetpack Off (90)</strong><br>Disables jetpack."></rect>
        <rect x="640" y="384" width="64" height="64" class="tooltip" title="<strong>Jetpack On (106)</strong><br>Enables jetpack (hold down fire with the pistol to use it)."></rect>
    </g>
    <g>
        <rect x="704" y="384" width="64" height="64" class="tooltip" title="<strong>Hookthrough Tees On (107)</strong><br>Your hook will now pass through other tees."></rect>
        <rect x="704" y="320" width="64" height="64" class="tooltip" title="<strong>Hookthrough Tees Off (91)</strong><br>You can now hook other tees."></rect>
    </g>
    <g>
        <rect x="0" y="384" width="64" height="64" class="tooltip" title="<strong>Teleporter Pistol On (96)</strong><br>Pistol shots will teleport you if they hit a teleporter gun block or another tee."></rect>
        <rect x="64" y="384" width="64" height="64" class="tooltip" title="<strong>Teleporter Pistol Off (97)</strong><br>Pistol shots will no longer teleport you."></rect>
    </g>
    <g>
        <rect x="0" y="448" width="64" height="64" class="tooltip" title="<strong>Teleporter Grenade Launcher On (112)</strong><br>Grenade Launcher shots will teleport you if they hit a teleporter gun block or another tee."></rect>
        <rect x="64" y="448" width="64" height="64" class="tooltip" title="<strong>Teleporter Grenade Launcher Off (113)</strong><br>Grenade Launcher shots will no longer teleport you."></rect>
    </g>
    <g>
        <rect x="0" y="512" width="64" height="64" class="tooltip" title="<strong>Teleporter Laser On (128)</strong><br>Laser shots will teleport you if they hit a teleporter gun block or another tee."></rect>
        <rect x="64" y="512" width="64" height="64" class="tooltip" title="<strong>Teleporter Laser Off (129)</strong><br>Laser shots will no longer teleport you."></rect>
    </g>
    <rect x="768" y="512" width="256" height="128" class="tooltip" title="<strong>Credits (140)</strong><br>Designer of the entities."></rect>
    <rect x="896" y="704" width="128" height="64" class="tooltip" title="<strong>Warning: Entities Off Sign (190)</strong><br>Warning for players playing in entities, informs that they should turn off entities in order to see important marks on the map."></rect>
    <g>
        <rect x="0" y="768" width="64" height="64" class="tooltip" title="<strong>Spawn (192)</strong><br>Where you will spawn upon death or joining the server."></rect>
        <rect x="64" y="768" width="64" height="64" class="tooltip" title="<strong>Red Team Spawn (193)</strong><br>Not used in DDRace. Spawn for the red team"></rect>
        <rect x="128" y="768" width="64" height="64" class="tooltip" title="<strong>Blue Team Spawn (194)</strong><br>Not used in DDRace. Spawn for the blue team."></rect>
    </g>
    <g>
        <rect x="192" y="768" width="64" height="64" class="tooltip" title="<strong>Red Flag (195)</strong><br>Not used in DDRace. Origin of the red flag."></rect>
        <rect x="256" y="768" width="64" height="64" class="tooltip" title="<strong>Blue Flag (196)</strong><br>Not used in DDRace. Origin of the blue flag."></rect>
    </g>
    <g>
        <rect x="320" y="768" width="64" height="64" class="tooltip" title="<strong>Shield (197)</strong><br>Removes all weapons (except for hammer and pistol)."></rect>
        <rect x="384" y="768" width="64" height="64" class="tooltip" title="<strong>Heart (198)</strong><br>Freezes (stuns) for 3 seconds."></rect>
    </g>
    <g>
        <a xlink:href="/weapons/grenade/">
            <rect x="512" y="768" width="64" height="64" class="tooltip" title="<strong>Grenade Launcher (200)</strong><br>Weapon, shoots exploding projectile in an arc."></rect>
        </a>
        <a xlink:href="/weapons/ninja/">
            <rect x="576" y="768" width="64" height="64" class="tooltip" title="<strong>Ninja (201)</strong><br>Weapon, lasts 15 seconds at max, allows you to dash, you can't use other weapons while you have Ninja."></rect>
        </a>
        <a xlink:href="/weapons/laser/">
            <rect x="640" y="768" width="64" height="64" class="tooltip" title="<strong>Laser (202)</strong><br>Weapon, shoots beam that bounces off walls and unfreezes the first tee it hits."></rect>
        </a>
        <a xlink:href="/weapons/shotgun/">
            <rect x="448" y="768" width="64" height="64" class="tooltip" title="<strong>Shotgun (199)</strong><br>Weapon, shoots beam that bounces off walls and pulls the first tee it hits."></rect>
        </a>
    </g>
    <g>
        <rect x="704" y="768" width="64" height="64" class="tooltip" title="<strong>Counterclockwise, Fast Rotating Freezing Laser (203)</strong><br>Center of a continuous laser beam that freezes tees and rotates counterclockwise."></rect>
        <rect x="768" y="768" width="64" height="64" class="tooltip" title="<strong>Counterclockwise, Normal Rotating Freezing Laser (204)</strong><br>Center of a continuous laser beam that freezes tees and rotates counterclockwise."></rect>
        <rect x="832" y="768" width="64" height="64" class="tooltip" title="<strong>Counterclockwise, Slow Rotating Freezing Laser (205)</strong><br>Center of a continuous laser beam that freezes tees and rotates counterclockwise."></rect>
    </g>
    <g>
        <rect x="896" y="768" width="64" height="64" class="tooltip" title="<strong>Static Freezing Laser (206)</strong><br>Continuous laser beam that freezes tees."></rect>
    </g>
    <g>
        <rect x="0" y="832" width="64" height="64" class="tooltip" title="<strong>Clockwise, Normal Rotating Freezing Laser (208)</strong><br>Center of a continuous laser beam that freezes tees and rotates clockwise."></rect>
        <rect x="64" y="832" width="64" height="64" class="tooltip" title="<strong>Clockwise, Fast Rotating Freezing Laser (209)</strong><br>Center of a continuous laser beam that freezes tees and rotates clockwise."></rect>
        <rect x="960" y="768" width="64" height="64" class="tooltip" title="<strong>Clockwise, Slow Rotating Freezing Laser (207)</strong><br>Center of a continuous laser beam that freezes tees and rotates clockwise."></rect>
    </g>
    <g>
        <rect x="128" y="832" width="64" height="64" class="tooltip" title="<strong>Laser Length Setter (210)</strong><br>Sets the length of a laser door or rotating laser to 3 tiles."></rect>
        <rect x="192" y="832" width="64" height="64" class="tooltip" title="<strong>Laser Length Setter (211)</strong><br>Sets the length of a laser door or rotating laser to 6 tiles."></rect>
        <rect x="256" y="832" width="64" height="64" class="tooltip" title="<strong>Laser Length Setter (212)</strong><br>Sets the length of a laser door or rotating laser to 9 tiles."></rect>
    </g>
    <g>
        <rect x="320" y="832" width="64" height="64" class="tooltip" title="<strong>Slow Laser Lengthener (213)</strong><br>Causes laser length to lengthen and shorten, doesn't work wit laser doors."></rect>
        <rect x="384" y="832" width="64" height="64" class="tooltip" title="<strong>Normal Laser Lengthener (214)</strong><br>Causes laser length to lengthen and shorten, doesn't work wit laser doors."></rect>
        <rect x="448" y="832" width="64" height="64" class="tooltip" title="<strong>Fast Laser Lengthener (215)</strong><br>Causes laser length to lengthen and shorten, doesn't work wit laser doors."></rect>
    </g>
    <g>
        <rect x="512" y="832" width="64" height="64" class="tooltip" title="<strong>Slow Laser Length Changer (216)</strong><br>Causes laser length to shorten and lengthen, doesn't work wit laser doors."></rect>
        <rect x="576" y="832" width="64" height="64" class="tooltip" title="<strong>Normal Laser Length Changer (217)</strong><br>Causes laser length to shorten and lengthen, doesn't work wit laser doors."></rect>
        <rect x="640" y="832" width="64" height="64" class="tooltip" title="<strong>Fast Laser Length Changer (218)</strong><br>Causes laser length to shorten and lengthen, doesn't work wit laser doors."></rect>
    </g>
    <g>
        <rect x="768" y="832" width="64" height="64" class="tooltip" title="<strong>Explosion Turret (220)</strong><br>Locks onto the nearest tee and shoots projectiles at it that explode. Doesn't work through walls and turret blocker tiles."></rect>
        <rect x="832" y="832" width="64" height="64" class="tooltip" title="<strong>Freeze Turret (221)</strong><br>Locks onto the nearest tee and shoots projectiles at it that freeze for 3 seconds. Doesn't work through walls and turret blocker tiles."></rect>
        <rect x="896" y="832" width="64" height="64" class="tooltip" title="<strong>Freeze Explosion Turret (222)</strong><br>Locks onto the nearest tee and shoots projectiles at it that explode and freeze for 3 seconds. Doesn't work through walls and turret blocker tiles."></rect>
        <rect x="960" y="832" width="64" height="64" class="tooltip" title="<strong>Unfreeze Turret (223)</strong><br>Locks onto the nearest tee and shoots projectiles at it that unfreezes. Doesn't work through walls and turret blocker tiles."></rect>
    </g>
    <g>
        <rect x="0" y="896" width="64" height="64" class="tooltip" title="<strong>Exploding Bullet (224)</strong><br>Moving projectile that freezes it hits and explodes when bouncing off walls."></rect>
        <rect x="64" y="896" width="64" height="64" class="tooltip" title="<strong>Bullet (225)</strong><br>Moving projectile that freezes it hits and bounces off walls."></rect>
    </g>
    <g>
        <rect x="576" y="896" width="64" height="64" class="tooltip" title="<strong>Slow Dragger (233)</strong><br>Locks onto closest tee and drags it until it is out of sight again, blocked by walls and dragger blocker tiles."></rect>
        <rect x="640" y="896" width="64" height="64" class="tooltip" title="<strong>Normal Dragger (234)</strong><br>Locks onto closest tee and drags it until it is out of sight again, blocked by walls and dragger blocker tiles."></rect>
        <rect x="704" y="896" width="64" height="64" class="tooltip" title="<strong>Fast Dragger (235)</strong><br>Locks onto closest tee and drags it until it is out of sight again, blocked by walls and dragger blocker tiles."></rect>
    </g>
    <g>
        <rect x="768" y="896" width="64" height="64" class="tooltip" title="<strong>Slow Hookthrough Dragger (236)</strong><br>Locks onto closest tee and drags it until it is out of sight again, blocked only by dragger blocker tiles."></rect>
        <rect x="832" y="896" width="64" height="64" class="tooltip" title="<strong>Normal Hookthrough Dragger (237)</strong><br>Locks onto closest tee and drags it until it is out of sight again, blocked only by dragger blocker tiles."></rect>
        <rect x="896" y="896" width="64" height="64" class="tooltip" title="<strong>Fast Hookthrough Dragger (238)</strong><br>Locks onto closest tee and drags it until it is out of sight again, blocked only by dragger blocker tiles."></rect>
    </g>
    <rect x="0" y="960" width="64" height="64" class="tooltip" title="<strong>Laser Door (240)</strong><br>Doesn't let tees through, controlled by switches and works like a row of stopper tiles."></rect>

</svg>
